wave.vcd
$date
	Sun Mar 22 02:12:03 2026
$end
$version
	Icarus Verilog
$end
$timescale
	1ps
$end
$scope module my_module_tb $end
$var reg 1 ! clk $end
$upscope $end
$scope module my_module_tb $end
$var reg 1 " in1 $end
$upscope $end
$scope module my_module_tb $end
$var reg 1 # in2 $end
$upscope $end
$scope module my_module_tb $end
$var reg 1 $ in3 $end
$upscope $end
$scope module my_module_tb $end
$var reg 1 % reset $end
$upscope $end
$scope module my_module_tb $end
$var wire 1 & out1 $end
$upscope $end
$scope module my_module_tb $end
$var wire 1 ' out2 $end
$upscope $end
$enddefinitions $end
#0
$dumpvars
x'
x&
1%
0$
0#
0"
0!
$end
#5000
0'
0&
1!
#7000
0%
#8000
1%
#10000
0!
#15000
1!
#17000
0%
#20000
0!
#25000
1!
#28000
1%
#30000
0!
#35000
1!
#37000
1$
0%
#40000
0!
#45000
1!
#48000
0$
1%
#50000
0!
#55000
1!
#57000
1#
0%
#60000
0!
#65000
1&
1!
#68000
0#
1%
#70000
0!
#75000
0&
1!
#77000
1$
1#
0%
#80000
0!
#85000
1'
1&
1!
#88000
0$
0#
1%
#90000
0!
#95000
0'
0&
1!
#97000
1"
0%
#100000
0!
#105000
1&
1!
#108000
0"
1%
#110000
0!
#115000
0&
1!
#117000
1$
1"
0%
#120000
0!
#125000
1&
1!
#128000
0$
0"
1%
#130000
0!
#135000
0&
1!
#137000
1#
1"
0%
#140000
0!
#145000
1!
#148000
0#
0"
1%
#150000
0!
#155000
1!
#157000
1$
1#
1"
0%
#160000
0!
#165000
1'
1!
