wave.vcd
$date
	Fri Mar 27 21:35:55 2026
$end
$version
	Icarus Verilog
$end
$timescale
	1ps
$end
$scope module dram_cell_tb $end
$var reg 1 ! clk $end
$upscope $end
$scope module dram_cell_tb $end
$var reg 16 " din [15:0] $end
$upscope $end
$scope module dram_cell_tb $end
$var reg 1 # re $end
$upscope $end
$scope module dram_cell_tb $end
$var reg 1 $ rst $end
$upscope $end
$scope module dram_cell_tb $end
$var reg 1 % we $end
$upscope $end
$scope module dram_cell_tb $end
$var wire 16 & dout [15:0] $end
$upscope $end
$enddefinitions $end
#0
$dumpvars
b0 &
0%
1$
0#
b0 "
0!
$end
#5000
1!
#6000
0$
#10000
0!
#15000
1!
#16000
1#
#20000
0!
#25000
1!
#27000
0#
1$
#30000
0!
#35000
1!
#36000
0$
#40000
0!
#45000
1!
#46000
1%
b1010101111001101 "
#50000
0!
#55000
1!
#56000
1#
0%
#60000
0!
#65000
b1010101111001101 &
1!
#67000
b0 &
b0 "
0#
1$
#70000
0!
#75000
1!
#76000
0$
#80000
0!
#85000
1!
#86000
b1001000110100 "
#90000
0!
#95000
1!
#96000
1#
#100000
0!
#105000
1!
#107000
b0 "
0#
1$
#110000
0!
#115000
1!
#116000
0$
#120000
0!
#125000
1!
#126000
1%
b101010110101010 "
#130000
0!
#135000
1!
#136000
b1111111111111111 "
0%
#140000
0!
#145000
1!
#150000
0!
#155000
1!
#156000
1#
#160000
0!
#165000
b101010110101010 &
1!
#167000
b0 &
b0 "
0#
1$
#170000
0!
#175000
1!
#176000
0$
#180000
0!
#185000
1!
#186000
1%
b1100101011111110 "
#190000
0!
#195000
1!
#196000
0%
#200000
0!
#205000
1!
#207000
b0 "
1$
#210000
0!
#215000
1!
#216000
0$
#220000
0!
#225000
1!
#226000
1%
b1001100110011001 "
#230000
0!
#235000
1!
#236000
1$
0%
#240000
0!
#245000
1!
#246000
1#
0$
#250000
0!
#255000
1!
#257000
b0 "
0#
1$
#260000
0!
#265000
1!
#266000
0$
#270000
0!
#275000
1!
#276000
1%
b1000100010001 "
#280000
0!
#285000
1!
#286000
b10001000100010 "
#290000
0!
#295000
1!
#296000
1#
0%
#300000
0!
#305000
b10001000100010 &
1!
