wave.vcd
$date
	Fri Mar 27 12:17:47 2026
$end
$version
	Icarus Verilog
$end
$timescale
	1ps
$end
$scope module uart_transmitter_tb $end
$var reg 1 ! clk $end
$upscope $end
$scope module uart_transmitter_tb $end
$var reg 8 " data_in [7:0] $end
$upscope $end
$scope module uart_transmitter_tb $end
$var reg 1 # rst $end
$upscope $end
$scope module uart_transmitter_tb $end
$var reg 1 $ start_transmit $end
$upscope $end
$scope module uart_transmitter_tb $end
$var wire 1 % busy $end
$upscope $end
$scope module uart_transmitter_tb $end
$var wire 1 & tx $end
$upscope $end
$enddefinitions $end
#0
$dumpvars
1&
0%
0$
1#
b0 "
0!
$end
#5000
1!
#10000
0!
#15000
1!
#20000
0!
0#
#25000
1!
#30000
0!
b1010101 "
#35000
1%
1$
1!
#40000
0!
#45000
0&
0$
1!
#50000
0!
#55000
1!
#60000
0!
#65000
1&
1!
#70000
0!
#75000
0&
1!
#80000
0!
#85000
1&
1!
#90000
0!
#95000
0&
1!
#100000
0!
#105000
1&
1!
#110000
0!
#115000
0&
1!
#120000
0!
#125000
1&
1!
#130000
0!
#135000
1!
#140000
0!
#145000
0%
1!
#150000
0!
#155000
1!
#156000
b0 "
1#
#160000
0!
#165000
1!
#170000
0!
#175000
1!
#176000
0#
#180000
0!
#185000
1!
#186000
b10101010 "
#190000
0!
#195000
1%
1$
1!
#200000
0!
#205000
0&
0$
1!
#210000
0!
#215000
1!
#220000
0!
#225000
1!
#230000
0!
#235000
1&
1!
#240000
0!
#245000
0&
1!
#250000
0!
#255000
1&
1!
#260000
0!
#265000
0&
1!
#270000
0!
#275000
1&
1!
#280000
0!
#285000
0&
1!
#290000
0!
#295000
1!
#300000
0!
#305000
0%
1&
1!
#310000
0!
#315000
1!
#316000
b0 "
1#
#320000
0!
#325000
1!
#330000
0!
#335000
1!
#336000
0#
#340000
0!
#345000
1!
#350000
0!
#355000
1%
1$
1!
#360000
0!
#365000
0&
0$
1!
#370000
0!
#375000
1!
#380000
0!
#385000
1!
#390000
0!
#395000
1!
#400000
0!
#405000
1!
#410000
0!
#415000
1!
#420000
0!
#425000
1!
#430000
0!
#435000
1!
#440000
0!
#445000
1!
#450000
0!
#455000
1!
#460000
0!
#465000
0%
1&
1!
#470000
0!
#475000
1!
#476000
1#
#480000
0!
#485000
1!
#490000
0!
#495000
1!
#496000
0#
#500000
0!
#505000
1!
#506000
b11111111 "
#510000
0!
#515000
1%
1$
1!
#520000
0!
#525000
0&
0$
1!
#530000
0!
#535000
1!
#540000
0!
#545000
1&
1!
#550000
0!
#555000
1!
#560000
0!
#565000
1!
#570000
0!
#575000
1!
#580000
0!
#585000
1!
#590000
0!
#595000
1!
#600000
0!
#605000
1!
#610000
0!
#615000
1!
#620000
0!
#625000
0%
1!
#630000
0!
#635000
1!
#636000
b0 "
1#
#640000
0!
#645000
1!
#650000
0!
#655000
1!
#656000
0#
#660000
0!
#665000
1!
#666000
b10100101 "
#670000
0!
#675000
1%
1$
1!
#680000
0!
#685000
0&
0$
1!
#690000
0!
#695000
1!
#700000
0!
#705000
1&
1!
#710000
0!
#715000
0&
1!
#720000
0!
#725000
1&
1!
#730000
0!
#735000
0%
1#
1!
#740000
0!
#745000
1!
#750000
0!
#755000
1!
0#
#760000
0!
#765000
1!
#766000
b0 "
1#
#770000
0!
#775000
1!
#780000
0!
#785000
1!
#786000
0#
#790000
0!
#795000
1!
#796000
b10010 "
#800000
0!
#805000
1%
1$
1!
#810000
0!
#815000
0&
0$
1!
#820000
0!
#825000
1!
#830000
0!
#835000
1!
#840000
0!
#845000
1&
1!
#850000
0!
#855000
0&
1!
#860000
0!
#865000
1!
#870000
0!
#875000
1&
1!
#880000
0!
#885000
0&
1!
#890000
0!
#895000
1!
#900000
0!
#905000
1!
#910000
0!
#915000
b110100 "
0%
1&
1!
#920000
0!
#925000
1%
1$
1!
#930000
0!
#935000
0&
0$
1!
#940000
0!
#945000
1!
#950000
0!
#955000
1!
#960000
0!
#965000
1!
#970000
0!
#975000
1&
1!
#980000
0!
#985000
0&
1!
#990000
0!
#995000
1&
1!
#1000000
0!
#1005000
1!
#1010000
0!
#1015000
0&
1!
#1020000
0!
#1025000
1!
#1030000
0!
#1035000
0%
1&
1!
